; ModuleID = 'probe5.c85dd862f7b9a3d0-cgu.0'
source_filename = "probe5.c85dd862f7b9a3d0-cgu.0"
target datalayout = "e-m:e-p270:32:32-p271:32:32-p272:64:64-i64:64-f80:128-n8:16:32:64-S128"
target triple = "x86_64-unknown-linux-gnu"

; std::f64::<impl f64>::copysign
; Function Attrs: inlinehint nonlazybind uwtable
define internal double @"_ZN3std3f6421_$LT$impl$u20$f64$GT$8copysign17hdab14070742b296cE"(double %self, double %sign) unnamed_addr #0 {
start:
  %0 = alloca double, align 8
  %1 = call double @llvm.copysign.f64(double %self, double %sign)
  store double %1, ptr %0, align 8
  %_0 = load double, ptr %0, align 8, !noundef !3
  ret double %_0
}

; probe5::probe
; Function Attrs: nonlazybind uwtable
define void @_ZN6probe55probe17h6b735cd786f2cfc0E() unnamed_addr #1 {
start:
; call std::f64::<impl f64>::copysign
  %_1 = call double @"_ZN3std3f6421_$LT$impl$u20$f64$GT$8copysign17hdab14070742b296cE"(double 1.000000e+00, double -1.000000e+00)
  ret void
}

; Function Attrs: nocallback nofree nosync nounwind speculatable willreturn memory(none)
declare double @llvm.copysign.f64(double, double) #2

attributes #0 = { inlinehint nonlazybind uwtable "probe-stack"="inline-asm" "target-cpu"="haswell" }
attributes #1 = { nonlazybind uwtable "probe-stack"="inline-asm" "target-cpu"="haswell" }
attributes #2 = { nocallback nofree nosync nounwind speculatable willreturn memory(none) }

!llvm.module.flags = !{!0, !1}
!llvm.ident = !{!2}

!0 = !{i32 8, !"PIC Level", i32 2}
!1 = !{i32 2, !"RtLibUseGOT", i32 1}
!2 = !{!"rustc version 1.76.0 (07dca489a 2024-02-04)"}
!3 = !{}
